﻿\\01hw600750\BackUp\UNIX\LINUX

useradd -u 1201 -G wheel name

cat /etc/ssh/sshd_config


useradd -u 1210 -c "Rajesh Chokkara" tatarac
useradd -u 1206 -G wheel -c "TATA LINUX ADMIN" tatatas
useradd -u 1103 -G Chef-Architects -c "Mikkel Koefoed Jakobsen" ACNSMKJ

useradd -u 1001 -c "Lars Rishøj" zedblir; echo "test123"|passwd --stdin zedblir
useradd -u 1002 -c "Per Jensen" statpej; echo "test123"|passwd --stdin statpej
echo "test123"|passwd --stdin zedblir

useradd -u 1210 -c "Guidewire Contact manager" sa01.gwcmprod
echo "test123"|passwd --stdin sa01.gwcmprod


useradd -u 1004 -c "Tools User" bppm; echo "Tryg@123"|passwd --stdin bppm
useradd -u 1005 -c "Tools User" bppmpu; echo "Tryg@123"|passwd --stdin bppmpu
useradd -u 1003 -c "Tools User" addm; echo "Tcs@2009"|passwd --stdin addm

useradd -u 1213 -g jeeadmin -G users2 -c "Middleware jee ADMIN" tataswp
useradd -u 1219 -g jeeadmin -G users2 -c "Middleware jee ADMIN" tatakbh

echo "test123"|passwd --stdin tatakbh

useradd -c "Subhasish Hazra" -m -d /home/tatasha -s /bin/bash tatasha

useradd -c "Rasmus David Helmer Pih" -m -d /home/acnsrdp -s /bin/bash acnsrdp

usermod -g 
echo "test123"|passwd --stdin tatasha
faillock --user <username>  -- reset -------in RHEL 7
pam_tally2 --user=tatasds --reset---------------in Rhel 6
echo "Passw0rd@123"|passwd --stdin tatasds

echo "test123"|passwd --stdin

passwd tatabch

root

Tcsunix@123-password.

visudo

PermitRootLogin no

To forcefully ask to change the password of an user :-  

chage -d 0 addm
 echo "sa01.ignio ALL=(ALL) ALL" >> /etc/sudoers

sudo visudo
myusername ALL=(ALL) NOPASSWD: ALL
myusername ALL=(ALL) NOPASSWD: ALL


Crontab:-

00	8	*	*	1	/usr/bin/nmon -f -T -s 30 -c 1080 > report | scp  -ssh tatabch@10.48.67.147 -pw tatabch@123

________________________DHCP____________________________
/etc/sysconfig/dhcpd ...................Location for dhcp ehternet decleration.


smbclient:- smbclient -L 10.59.19.144 -U tatabch

netstat -an | grep 192.168.1.12:2049 .................for getting nfs client information from server.

grep ZONE /etc/sysconfig/clock.............to get zone information.
zdump -v Europe/Copenhagen|grep 2016 ............DayLight savings time.

https://10.48.24.40:8080

Linux Script

cat serverlist.txt|while read line1 line2
do echo -e "$line2($line1):" >> lspath.txt
echo "-------------------------------------------------------------------------------------------------------------" >> lspath.txt
expect -c 'spawn ssh tatatas@'$line1';expect password;send "Passw0rd@123\n";expect "*$";send "./lspv.sh\n";expect "*$";send exit\n;' >> lspath.txt
echo "*****************************************************************************************************************" >> lspath.txt
echo "" >> lspath.txt
done

tune2fs -l /dev/sda1..............................partition info check

lsb_release -a.............................to check linux installed OS.

cat /etc/ntp.conf.........................contains the server details of ntp server.
ntpd -p.....to update the time.

pam_tally2 --user=tatasds --reset...........to reset the password from PAM for a user.

pam_tally2 -u acnsamb --reset

/etc/profile.................contains umask information.

systool -c fc_host -v .......... to check HBAs in a physical Linux servers.

/etc/udev/rules.d................device mapping with etc file is done here..mainly for ethernet cards.

sudo sh /cm/ibm/WebSphere70/AppServer/profiles/AppSrv01/bin/wsadmin.sh-----provind sudo acces to particular type of file say sh.

tataswp ALL=(root) /usr/bin/sh-------

mrepo -q -ug 2>/dev/null................new patch download.

ps axo %mem,comm,pid,euser | sort -nr | head -n 10.....sorting top process

************Solution for Kernel Panic issue****************

echo 0 > /proc/sys/kernel/hung_task_timeout_secs
sar -r....memory check
sar -u ...CPU check

vi /etc/sysctl.conf
edit 
vm.dirty_ratio=10
vm.dirty_background_ratio=5
reboot........................for kernel tunning issue.

ps -eo pid,%cpu,vsz,args,wchan............outputs the no. of processes running.

yum install -y *syslog* --skip-broken;................to skip installing some dependency.

mrepo -guvv .............................to install repository in mrepo server

mount -t nfs sharename with remote ip /localdirectory

lid -g wheel   .............To see users contained in group named 'wheel':

tar cvf - <filename> | gzip > <newfilename.tar.gz> 

lshw -html > lshw.html.............To view output in a web based page.

free -m -t ....provide swap space.
who -T ...tells the logged in user
 
mount 10.59.72.150:/d_logs -t nfs -o nfsvers=3 /logs................for nfs3 version mounting.
mount -t nfs -o nfsvers=3 10.59.72.150:/d_oracle /opt/oracle........for nfs3 version mounting.
mount -t nfs4 -o /directory /mount point............................for nfs4 version mounting.

mount -o remount / .............to remount an existing mount point after modification.

If you have any filesystem that was ext3, and you’d like to upgrade them to ext4,

$ umount /dev/your_dev
$ tune2fs -O extents,uninit_bg,dir_index /dev/your_dev
$ fsck -Cy /dev/your_dev
Edit /etc/fstab, replace ext3 to ext4
mount it

/var/log/secure......log for sulog

All the login attempts made to your system are stored in /var/log/secure. 

getent group|grep 502.........to check group entry.

groupmod -g 502 jeeadmin.........to change groupid.

echo 1 > /proc/sys/vm/drop_caches ....for cleaning of cache files.

*****************************************************For Mirroring**********************************
lvcreate -L +19G -m1 -n  new_nft_log_lv nfsvg /dev/sdd1 /dev/sde1 /dev/sdc1 ..................../dev/sdc1 is the log storage for lvm
lvcreate -L +20G -m1 -n  new_nft_oracle_lv nfsvg /dev/sdd1 /dev/sde1 /dev/sdc1...................../dev/sdd1 & /dev/sde is mirror volumes
lvcreate -L +20G -m1 -n  new_nft_app_lv nfsvg /dev/sdd1 /dev/sde1 /dev/sdc1

setfacl -R -m d:g:ROLE-G-TRF-J2EE-ALL-Monitor-Tryg:r-x /nft_logs/  ........................for default settings.

rsync -av --include=".htaccess" * source destination

diff -r dir1/ dir2/   ................to get the difference between two files.

/etc/login.defs ................to check password polcy changes through PAM.
/etc/pam.d/passwd-authentication ...............to check & add password complexity rule.

stat -c "%a" /etc .............. will give the permission of the fileset.

stat /etc .........................will give the file statistics

10.59.69.113:/test_logs on /logs type nfs4 (rw,hard,clientaddr=10.59.35.248,acl,addr=10.59.69.113) ..........mount type.

mount -t cifs 10.48.64.61:/samba -o username=tatasds,passwword=#@$%^&* /patch
mount -t cifs //dkdc2sqlpocl002/SQLShare /var/opt/SQLBackup/ -o username=mssql,password=test123


SCRIPTS----------------------------------------
for f in $( ls /var/ ); do echo $f; done | nl > file1 ..................To list files

-------------------------Software install & uninstall------------------------------


Create a snapshot or suspend the virtual machine.
On Vsphere you ca right mouse click the server(vm) from the left tree menu and choose Snapshot -> Take Snapshot
(Optional and takes longer) Select the Snapshot the virtual machine’s memory check box to capture the memory of the virtual machine.

Locate the snapshot (.vmsn) or suspend file (.vmss) in the virtual machine directory. The vmss2core tool also accepts monolithic or non‐monolithic memory (.vmem) files. 
=========================================Script================================================
n RHEL 6.8

I did enabling time stamp for history command output.
echo 'export HISTTIMEFORMAT="%d/%m/%y %T "' >> ~/.bashrc
source ~/.bashrc

Now, i am looking for how to enable timestamp for .bash_history
Thanks in advance for your help!!!
38616

echo 'export HISTTIMEFORMAT="%d/%m/%y %T "' >> ~/.bash_profile

just append your .bash_profile
and then run history command we will get the time stamp of all history command.

==========================================Patrol Agent===================================

su - bppm -c "/opt/bmc/Patrol3/scripts.d/S50PatrolAgent.sh stop" -------------
