=~=~=~=~=~=~=~=~=~=~=~= PuTTY log 2014.05.21 17:08:15 =~=~=~=~=~=~=~=~=~=~=~=
login as: admin
admin@172.16.2.72's password: 

-----------------------------------------------------------------
IBM_2498_B24_SW2:admin> 
IBM_2498_B24_SW2:admin> 
IBM_2498_B24_SW2:admin> firmwareshow
Appl     Primary/Secondary Versions 
------------------------------------------
FOS      v6.1.1a
         v6.1.1a
IBM_2498_B24_SW2:admin> firmwaredownload
Server Name or IP Address: 172.16.4.192
User Name: tamalsett
File Name: v6.2.2b
Network Protocol(1-auto-select, 2-FTP, 3-SCP) [1]: 3
Password: 
Checking system settings for firmwaredownload...
Server IP: 172.16.4.192, Protocol IPv4
System settings check passed.

You can run firmwaredownloadstatus to get the status
of this command.

This command will cause a warm/non-disruptive boot on the switch,
but will require that existing telnet, secure telnet or SSH sessions
be restarted. 


Do you want to continue [Y]: Y
Firmware is being downloaded to the switch. This step may take up to 30 minutes.
Preparing for firmwaredownload...
Start to install packages...
dir                         ##################################################
ldconfig                    ##################################################
glibc                       ##################################################
glibc-linuxthreads          ##################################################
bash                        ##################################################
readline                    ##################################################
terminfo                    ##################################################
termcap                     ##################################################
fileutils                   ##################################################
textutils                   ##################################################
warning: /etc/passwd created as /etc/passwd.rpmnew
warning: /etc/shadow created as /etc/shadow.rpmnew
setup                       ##################################################
warning: /etc/hosts created as /etc/hosts.rpmnew
swbd12-setup                ##################################################
which                       ##################################################
findutils                   ##################################################
bzip                        ##################################################
zlib                        ##################################################
chkconfig                   ##################################################
sed                         ##################################################
procps                      ##################################################
psmisc                      ##################################################
modutils                    ##################################################
sin                         ##################################################
rcinit                      ##################################################
misc                        ##################################################
pam                         ##################################################
util-linux                  ##################################################
sh-utils                    ##################################################
popt                        ##################################################
grep                        ##################################################
rpm                         ##################################################
sysvinit                    ##################################################
man                         ##################################################
less                        ##################################################
gzip                        ##################################################
tar                         ##################################################
rsync                       ##################################################
uuid-libs                   ##################################################
e2fsprogs                   ##################################################
cpio                        ##################################################
dev                         ##################################################
bootenv                     ##################################################
wdtd                        ##################################################
fwdl                        ##################################################
telnet-server               ##################################################
kernel                      ##################################################
kernel-module-usb           ##################################################
swbd21-drivers              ##################################################
sysklogd                    ##################################################
getty                       ##################################################
net-tools                   ##################################################
vixie-cron                  ##################################################
uucp                        ##################################################
portmap                     ##################################################
inetd                       ##################################################
iptables                    ##################################################
tcpd                        ##################################################
rsh-server                  ##################################################
rsh                         ##################################################
openssl-libs                ##################################################
openssh                     ##################################################
openssh-server              ##################################################
rusers-server               ##################################################
rdate                       ##################################################
logrotate                   ##################################################
ntp                         ##################################################
pciutils                    ##################################################
strace                      ##################################################
sendmail                    ##################################################
iproute2                    ##################################################
libxml2                     ##################################################
fss                         ##################################################
fabos-setup                 ##################################################
fabos-drivers               ##################################################
fabos-libs                  ##################################################
fabos-diag                  ##################################################
warning: /etc/fabos/user.db created as /etc/fabos/user.db.rpmnew
fabos                       ##################################################
fabos-daemons               ##################################################
fabos-zoning                ##################################################
sqlite                      ##################################################
dhcpcd                      ##################################################
fabos-vf                    ##################################################
fabos-hmon                  ##################################################
fabos-wwnhs                 ##################################################
fabos-man                   ##################################################
fabos-swbd71                ##################################################
apache                      ##################################################
fastcgi                     ##################################################
fabos-webtools              ##################################################
fabos-webtoolsez            ##################################################
tz                          ##################################################
mtracer-tool                ##################################################
sysstat                     ##################################################
prom-440epx                 ##################################################
Please avoid powering off the system during prom update.
ipv6                        ##################################################
awk                         ##################################################
ipsec                       ##################################################
Removing unneeded files, please wait ...
Finished removing unneeded files. 

All packages have been downloaded successfully.
Firmware has been downloaded to the secondary partition of the switch.
HA Rebooting ...
