[root@dkdc2omuprdl001 ~]# docker ps
CONTAINER ID        IMAGE                                                  COMMAND                  CREATED             STATUS                 PORTS                                      NAMES
e4a22016c5db        docker.io/gitlab/gitlab-runner:ubuntu-v12.0.2          "/usr/bin/dumb-ini..."   5 days ago          Up 5 days                                                         gitlab-runner-soapui-build
66bde2ba9a1d        docker.io/gitlab/gitlab-runner:ubuntu-v12.0.2          "/usr/bin/dumb-ini..."   5 days ago          Up 5 days                                                         gitlab-runner-clm-mng-build
d0e0b46ad5d5        docker.io/gitlab/gitlab-runner:ubuntu-v12.0.2          "/usr/bin/dumb-ini..."   5 days ago          Up 5 days                                                         gitlab-runner-clm-cntr-build
ac07cca40b06        docker.io/gitlab/gitlab-runner:ubuntu-v12.0.2          "/usr/bin/dumb-ini..."   5 days ago          Up 5 days                                                         gitlab-runner-chefdk-deploy
ab40ce135a54        docker.io/gitlab/gitlab-runner:ubuntu-v12.0.2          "/usr/bin/dumb-ini..."   5 days ago          Up 5 days                                                         gitlab-runner-chefdk-build
df7a2c1e9a10        docker.io/gitlab/gitlab-runner:ubuntu-v12.0.2          "/usr/bin/dumb-ini..."   5 days ago          Up 5 days                                                         gitlab-runner-java-build
13c5614ba4c8        docker.io/gitlab/gitlab-runner:ubuntu-v12.0.2          "/usr/bin/dumb-ini..."   5 days ago          Up 5 days                                                         gitlab-runner-docker-build
b1606ac11171        docker.io/gitlab/gitlab-ee:12.0.9-ee.0                 "/assets/wrapper"        5 days ago          Up 5 days (healthy)    22/tcp, 80/tcp, 443/tcp                    gitlab
e90d6d163d4b        docker.io/docker:18.03.0-ce-dind                       "dockerd-entrypoin..."   2 months ago        Up 5 weeks             2375/tcp                                   gitlab-runner-clm-mng-build-engine
98fca130fa62        docker.io/docker:18.03.0-ce-dind                       "dockerd-entrypoin..."   2 months ago        Up 5 weeks             2375/tcp                                   gitlab-runner-clm-cntr-build-engine
ecc70ebbd571        httpd:2.4.37-alpine                                    "httpd-foreground"       3 months ago        Up 5 weeks             80/tcp                                     backup_container
7df7ec191031        docker.io/gitlab/gitlab-runner:ubuntu-v11.7.0          "/usr/bin/dumb-ini..."   3 months ago        Up 5 weeks                                                        gitlab-runner-naturalone-deploy
2570bfe6968a        docker.io/docker:18.03.0-ce-dind                       "dockerd-entrypoin..."   3 months ago        Up 5 weeks             2375/tcp                                   gitlab-runner-naturalone-deploy-engine
63753bd1065c        docker.io/docker:18.03.0-ce-dind                       "dockerd-entrypoin..."   4 months ago        Up 5 weeks             2375/tcp                                   gitlab-runner-soapui-build-engine
7d8e4335e392        docker.io/docker:18.03.0-ce-dind                       "dockerd-entrypoin..."   5 months ago        Up 5 weeks             2375/tcp                                   gitlab-runner-java-build-engine
7be7e0824914        docker.io/docker:18.03.0-ce-dind                       "dockerd-entrypoin..."   5 months ago        Up 5 weeks             2375/tcp                                   gitlab-runner-chefdk-deploy-engine
3a6628e6c685        docker.io/docker:18.03.0-ce-dind                       "dockerd-entrypoin..."   5 months ago        Up 5 weeks             2375/tcp                                   gitlab-runner-chefdk-build-engine
6b5a1c6edb51        docker.io/docker:18.03.0-ce-dind                       "dockerd-entrypoin..."   5 months ago        Up 5 weeks             2375/tcp                                   gitlab-runner-docker-build-engine
629b5d53eb41        registry.devops.prdroot.net/tryg-haproxy:0.0.1         "/usr/local/bin/en..."   6 months ago        Up 5 weeks             0.0.0.0:80->80/tcp, 0.0.0.0:443->443/tcp   haproxy
c0710868d2b5        registry.devops.prdroot.net/supermarket:3.2.0-ubuntu   "/entrypoint.sh"         6 months ago        Up 5 weeks                                                        supermarket
349696616a71        registry.devops.prdroot.net/chefserver:3.1.63          "/entrypoint.sh"         6 months ago        Up 5 weeks (healthy)   443/tcp                                    chefserver-supermarket
15eaa15b98b2        docker.io/registry:2.6.2                               "/entrypoint.sh /e..."   6 months ago        Up 5 weeks             5000/tcp                                   registry
